<?xml version="1.0" standalone="no"?>
<!DOCTYPE svg PUBLIC "-//W3C//DTD SVG 1.1//EN" "http://www.w3.org/Graphics/SVG/1.1/DTD/svg11.dtd">
<svg xmlns="http://www.w3.org/2000/svg" width="383.000m" height="83.476m" viewBox="0 0 383.000 83.476">
	<g id="Enclosure panel - lower, front upper">
		<path style="fill:rgb(204,204,204);" d="M0.000,-0.000L0.000,67.621L0.000,83.476L11.859,83.476L383.000,83.476L383.000,-0.000ZM327.251,9.476C327.251,8.510 328.034,7.726 329.001,7.726C329.967,7.726 330.751,8.510 330.751,9.476C330.751,10.442 329.967,11.226 329.001,11.226C328.034,11.226 327.251,10.442 327.251,9.476ZM17.251,9.476C17.251,8.510 18.034,7.726 19.001,7.726C19.967,7.726 20.751,8.510 20.751,9.476C20.751,10.442 19.967,11.226 19.001,11.226C18.034,11.226 17.251,10.442 17.251,9.476ZM7.251,69.476C7.251,68.510 8.034,67.726 9.001,67.726C9.967,67.726 10.751,68.510 10.751,69.476C10.751,70.442 9.967,71.226 9.001,71.226C8.034,71.226 7.251,70.442 7.251,69.476Z"/>
	</g>
</svg>