<?xml version="1.0" standalone="no"?>
<!DOCTYPE svg PUBLIC "-//W3C//DTD SVG 1.1//EN" "http://www.w3.org/Graphics/SVG/1.1/DTD/svg11.dtd">
<svg xmlns="http://www.w3.org/2000/svg" width="476.000m" height="446.000m" viewBox="0 0 476.000 446.000">
	<g id="Enclosure panel - upper, top">
		<path style="fill:rgb(204,204,204);" d="m0.000,-0.000l0.000,446.000l476.000,-0.000l0.000,-446.000zm462.500,434.250c0.000,-0.966 0.784,-1.750 1.750,-1.750c0.966,-0.000 1.750,0.784 1.750,1.750c0.000,0.966 -0.784,1.750 -1.750,1.750c-0.966,-0.000 -1.750,-0.784 -1.750,-1.750zm-0.000,-422.500c0.000,-0.966 0.784,-1.750 1.750,-1.750c0.966,-0.000 1.750,0.784 1.750,1.750c0.000,0.966 -0.784,1.750 -1.750,1.750c-0.966,-0.000 -1.750,-0.784 -1.750,-1.750zm-452.500,0.000c0.000,-0.966 0.784,-1.750 1.750,-1.750c0.966,-0.000 1.750,0.784 1.750,1.750c0.000,0.966 -0.784,1.750 -1.750,1.750c-0.966,-0.000 -1.750,-0.784 -1.750,-1.750zm0.000,422.500c0.000,-0.966 0.784,-1.750 1.750,-1.750c0.966,-0.000 1.750,0.784 1.750,1.750c0.000,0.966 -0.784,1.750 -1.750,1.750c-0.966,-0.000 -1.750,-0.784 -1.750,-1.750zm452.440,-211.250c0.000,-0.966 0.784,-1.750 1.750,-1.750c0.966,-0.000 1.750,0.784 1.750,1.750c0.000,0.966 -0.784,1.750 -1.750,1.750c-0.966,-0.000 -1.750,-0.784 -1.750,-1.750zm-452.480,-0.000c0.000,-0.966 0.784,-1.750 1.750,-1.750c0.966,-0.000 1.750,0.784 1.750,1.750c0.000,0.966 -0.784,1.750 -1.750,1.750c-0.966,-0.000 -1.750,-0.784 -1.750,-1.750zm226.290,211.290c0.000,-0.966 0.784,-1.750 1.750,-1.750c0.966,-0.000 1.750,0.784 1.750,1.750c0.000,0.966 -0.784,1.750 -1.750,1.750c-0.966,-0.000 -1.750,-0.784 -1.750,-1.750zm0.000,-422.540c0.000,-0.966 0.784,-1.750 1.750,-1.750c0.966,-0.000 1.750,0.784 1.750,1.750c0.000,0.966 -0.784,1.750 -1.750,1.750c-0.966,-0.000 -1.750,-0.784 -1.750,-1.750z"/>
	</g>
</svg>